%YAML 1.1
%TAG !u! tag:unity3d.com,2011:
--- !u!114 &11400000
MonoBehaviour:
  m_ObjectHideFlags: 0
  m_PrefabParentObject: {fileID: 0}
  m_PrefabInternal: {fileID: 0}
  m_GameObject: {fileID: 0}
  m_Enabled: 1
  m_EditorHideFlags: 0
  m_Script: {fileID: 11500000, guid: 526c8a90df31d41fe8057a6f85c7a3e4, type: 3}
  m_Name: CityMap_old
  m_EditorClassIdentifier: 
  Factories:
  - {fileID: 11400000, guid: 5357581fecb474eb8a5cce413020c853, type: 2}
  - {fileID: 11400000, guid: 308b64daa193a4ecab52847674b7c3e6, type: 2}
  - {fileID: 11400000, guid: ee4d24cec5a998543b716563b2b77dae, type: 2}
  _loadingTexture: {fileID: 0}
